^C:\USERS\MTVII\SOURCE\REPOS\LAB1\PRT1\PRT1.CPP
C:\USERS\MTVII\SOURCE\REPOS\LAB1\PRT1\DEBUG\VC142.PDB
C:\USERS\MTVII\SOURCE\REPOS\LAB1\PRT1\DEBUG\VC142.IDB
C:\USERS\MTVII\SOURCE\REPOS\LAB1\PRT1\DEBUG\PRT1.OBJ
